%!PS-Adobe-3.0 EPSF-3.0
%%DocumentNeededResources: font Helvetica
%%+ font Helvetica-Bold
%%+ font Helvetica-Oblique
%%+ font Helvetica-BoldOblique
%%+ font Symbol
%%Title: R Graphics Output
%%Creator: R Software
%%Pages: (atend)
%%BoundingBox: 82 277 514 565
%%EndComments
%%BeginProlog
/bp  { gs sRGB gs } def
% begin .ps.prolog
/gs  { gsave } bind def
/gr  { grestore } bind def
/ep  { showpage gr gr } bind def
/m   { moveto } bind def
/l  { rlineto } bind def
/np  { newpath } bind def
/cp  { closepath } bind def
/f   { fill } bind def
/o   { stroke } bind def
/c   { newpath 0 360 arc } bind def
/r   { 4 2 roll moveto 1 copy 3 -1 roll exch 0 exch rlineto 0 rlineto -1 mul 0 exch rlineto closepath } bind def
/p1  { stroke } bind def
/p2  { gsave bg fill grestore newpath } bind def
/p3  { gsave bg fill grestore stroke } bind def
/p6  { gsave bg eofill grestore newpath } bind def
/p7  { gsave bg eofill grestore stroke } bind def
/t   { 5 -2 roll moveto gsave rotate
       1 index stringwidth pop
       mul neg 0 rmoveto show grestore } bind def
/ta  { 4 -2 roll moveto gsave rotate show } bind def
/tb  { 2 -1 roll 0 rmoveto show } bind def
/cl  { grestore gsave newpath 3 index 3 index moveto 1 index
       4 -1 roll lineto  exch 1 index lineto lineto
       closepath clip newpath } bind def
/rgb { setrgbcolor } bind def
/s   { scalefont setfont } bind def
% end   .ps.prolog
/sRGB { [ /CIEBasedABC
          << /DecodeLMN
               [ { dup 0.03928 le
                        {12.92321 div}
                        {0.055 add 1.055 div 2.4 exp }
                     ifelse
                 } bind dup dup
               ]
             /MatrixLMN [0.412457 0.212673 0.019334
                         0.357576 0.715152 0.119192
                         0.180437 0.072175 0.950301]
             /WhitePoint [0.9505 1.0 1.0890]
           >>
         ] setcolorspace } bind def
/srgb { setcolor } bind def
%%IncludeResource: font Helvetica
/Helvetica findfont
dup length dict begin
  {1 index /FID ne {def} {pop pop} ifelse} forall
  /Encoding ISOLatin1Encoding def
  currentdict
  end
/Font1 exch definefont pop
%%IncludeResource: font Helvetica-Bold
/Helvetica-Bold findfont
dup length dict begin
  {1 index /FID ne {def} {pop pop} ifelse} forall
  /Encoding ISOLatin1Encoding def
  currentdict
  end
/Font2 exch definefont pop
%%IncludeResource: font Helvetica-Oblique
/Helvetica-Oblique findfont
dup length dict begin
  {1 index /FID ne {def} {pop pop} ifelse} forall
  /Encoding ISOLatin1Encoding def
  currentdict
  end
/Font3 exch definefont pop
%%IncludeResource: font Helvetica-BoldOblique
/Helvetica-BoldOblique findfont
dup length dict begin
  {1 index /FID ne {def} {pop pop} ifelse} forall
  /Encoding ISOLatin1Encoding def
  currentdict
  end
/Font4 exch definefont pop
%%IncludeResource: font Symbol
/Symbol findfont
dup length dict begin
  {1 index /FID ne {def} {pop pop} ifelse} forall
  currentdict
  end
/Font5 exch definefont pop
%%EndProlog
%%Page: 1 1
bp
96.04 334.54 304.84 564.94 cl
/Font1 findfont 12 s
0 0 0 srgb
202.36 337.42 (Gr) 0 ta
-0.120 (az) tb
-0.180 (ed) tb gr
107.56 463.42 (Density) .5 90 t
81.64 276.94 513.64 564.94 cl
0 0 0 srgb
0.75 setlinewidth
[] 0 setdash
1 setlinecap
1 setlinejoin
10.00 setmiterlimit
np
158.70 392.14 m
121.60 0 l
o
np
158.70 392.14 m
0 -7.20 l
o
np
178.97 392.14 m
0 -7.20 l
o
np
199.24 392.14 m
0 -7.20 l
o
np
219.50 392.14 m
0 -7.20 l
o
np
239.77 392.14 m
0 -7.20 l
o
np
260.04 392.14 m
0 -7.20 l
o
np
280.30 392.14 m
0 -7.20 l
o
/Font1 findfont 12 s
158.70 366.22 (0) .5 0 t
178.97 366.22 (20) .5 0 t
219.50 366.22 (60) .5 0 t
260.04 366.22 (100) .5 0 t
np
153.64 397.42 m
0 132.00 l
o
np
153.64 397.42 m
-7.20 0 l
o
np
153.64 416.28 m
-7.20 0 l
o
np
153.64 435.14 m
-7.20 0 l
o
np
153.64 454.00 m
-7.20 0 l
o
np
153.64 472.85 m
-7.20 0 l
o
np
153.64 491.71 m
-7.20 0 l
o
np
153.64 510.57 m
-7.20 0 l
o
np
153.64 529.42 m
-7.20 0 l
o
136.36 397.42 (0.000) .5 90 t
136.36 454.00 (0.006) .5 90 t
136.36 510.57 (0.012) .5 90 t
153.64 392.14 290.44 534.70 cl
0 0 0 srgb
0.75 setlinewidth
[] 0 setdash
1 setlinecap
1 setlinejoin
10.00 setmiterlimit
158.70 397.42 25.33 18.86 r p1
184.04 397.42 25.33 75.43 r p1
209.37 397.42 25.33 132.00 r p1
234.70 397.42 25.33 113.14 r p1
260.04 397.42 25.33 37.71 r p1
362.44 392.14 499.24 534.70 cl
304.84 334.54 513.64 564.94 cl
/Font1 findfont 12 s
0 0 0 srgb
404.83 337.42 (Ungr) 0 ta
-0.120 (az) tb
-0.180 (ed) tb gr
81.64 276.94 513.64 564.94 cl
0 0 0 srgb
0.75 setlinewidth
[] 0 setdash
1 setlinecap
1 setlinejoin
10.00 setmiterlimit
np
367.50 392.14 m
121.60 0 l
o
np
367.50 392.14 m
0 -7.20 l
o
np
387.77 392.14 m
0 -7.20 l
o
np
408.04 392.14 m
0 -7.20 l
o
np
428.30 392.14 m
0 -7.20 l
o
np
448.57 392.14 m
0 -7.20 l
o
np
468.84 392.14 m
0 -7.20 l
o
np
489.10 392.14 m
0 -7.20 l
o
/Font1 findfont 12 s
367.50 366.22 (0) .5 0 t
387.77 366.22 (20) .5 0 t
428.30 366.22 (60) .5 0 t
468.84 366.22 (100) .5 0 t
np
362.44 397.42 m
0 110.00 l
o
np
362.44 397.42 m
-7.20 0 l
o
np
362.44 434.09 m
-7.20 0 l
o
np
362.44 470.76 m
-7.20 0 l
o
np
362.44 507.42 m
-7.20 0 l
o
345.16 397.42 (0.000) .5 90 t
345.16 470.76 (0.010) .5 90 t
362.44 392.14 499.24 534.70 cl
0 0 0 srgb
0.75 setlinewidth
[] 0 setdash
1 setlinecap
1 setlinejoin
10.00 setmiterlimit
367.50 397.42 25.33 58.67 r p1
392.84 397.42 25.33 58.67 r p1
418.17 397.42 25.33 132.00 r p1
443.50 397.42 25.33 44.00 r p1
468.84 397.42 25.33 0.00 r p1
81.64 276.94 513.64 564.94 cl
/Font1 findfont 12 s
0 0 0 srgb
183.46 294.22 (Fr) 0 ta
0.180 (uit production \(dr) tb
0.360 (y w) tb
-0.120 (eight, mg\) b) tb
-0.240 (y treatment) tb gr
ep
%%Trailer
%%Pages: 1
%%EOF
