Area	Species
1	2
2	3
3	4
4	4
5	4
6	4
7	5
8	5
9	5
10	4
11	5
12	6
13	6
14	6
15	5
16	6
17	5
18	6
19	6
20	6
21	6
22	6
23	6
24	8
25	6
26	6
27	6
28	7
29	7
30	5
31	7
32	8
33	7
34	6
35	8
36	7
37	8
38	7
39	8
40	8
41	8
42	7
43	7
44	7
45	8
46	8
47	8
48	7
49	7
50	8
51	7
52	8
53	8
54	9
55	7
56	8
57	9
58	8
59	8
60	8
61	8
62	8
63	8
64	9
65	8
66	8
67	7
68	8
69	10
70	7
71	10
72	9
73	8
74	8
75	8
76	8
77	11
78	8
79	8
80	9
81	9
82	7
83	10
84	9
85	9
86	9
87	9
88	9
89	8
90	9
91	10
92	9
93	9
94	10
95	9
96	9
97	10
98	10
99	9
100	9